[
    {
        "id": 0,
        "project": 0,
        "timeSpent": 4,
        "issueUrl": "https://gitlab.com/ongresinc/interview/frontend-developer/-/issues/1",
        "date": "2024-02-01"
    },
    {
        "id": 1,
        "project": 0,
        "timeSpent": 2,
        "issueUrl": "https://gitlab.com/ongresinc/interview/frontend-developer/-/issues/5",
        "date": "2023-10-01"
    },
    {
        "id": 2,
        "project": 2,
        "timeSpent": 10,
        "issueUrl": "https://gitlab.com/ongresinc/interview/frontend-developer/-/issues/10",
        "date": "2024-02-10"
    },
    {
        "id": 3,
        "project": 1,
        "timeSpent": 1,
        "issueUrl": "https://gitlab.com/ongresinc/interview/frontend-developer/-/issues/3",
        "date": "2023-06-08"
    },
    {
        "id": 4,
        "project": 0,
        "timeSpent": 4,
        "engineer": "John",
        "issueUrl": "https://gitlab.com/ongresinc/interview/frontend-developer/-/issues/1",
        "date": "2024-02-01"
    },
    {
        "id": 5,
        "project": 2,
        "timeSpent": 20,
        "issueUrl": "https://gitlab.com/ongresinc/interview/frontend-developer/-/issues/21",
        "date": "2023-05-10"
    },
    {
        "id": 6,
        "project": 5,
        "timeSpent": 10,
        "issueUrl": "https://gitlab.com/ongresinc/interview/frontend-developer/-/issues/23",
        "date": "2024-02-01"
    },
    {
        "id": 7,
        "project": 3,
        "timeSpent": 1,
        "issueUrl": "https://gitlab.com/ongresinc/interview/frontend-developer/-/issues/9",
        "date": "2024-01-21"
    },
    {
        "id": 8,
        "project": 6,
        "timeSpent": 10,
        "issueUrl": "https://gitlab.com/ongresinc/interview/frontend-developer/-/issues/14",
        "date": "2024-01-15"
    },
    {
        "id": 9,
        "project": 6,
        "timeSpent": 5,
        "issueUrl": "https://gitlab.com/ongresinc/interview/frontend-developer/-/issues/22",
        "date": "2024-01-20"
    }
]